[gd_scene load_steps=9 format=2]

[ext_resource path="res://level/tileset.tres" type="TileSet" id=1]
[ext_resource path="res://object/nest.tscn" type="PackedScene" id=2]
[ext_resource path="res://level/Level.gd" type="Script" id=3]
[ext_resource path="res://ui/gameui.tscn" type="PackedScene" id=4]

[sub_resource type="RectangleShape2D" id=1]
extents = Vector2( 100, 10 )

[sub_resource type="RectangleShape2D" id=2]
extents = Vector2( 8, 80 )

[sub_resource type="RectangleShape2D" id=3]
extents = Vector2( 57, 2 )

[sub_resource type="RectangleShape2D" id=4]
extents = Vector2( 41, 2 )

[node name="Level" type="Node2D"]
script = ExtResource( 3 )
min_spawn_time = 1.0
max_spawn_time = 5.0
difficulty_ramp_time = 30.0

[node name="Background" type="TileMap" parent="."]
tile_set = ExtResource( 1 )
cell_size = Vector2( 8, 8 )
collision_layer = 0
collision_mask = 0
format = 1
tile_data = PoolIntArray( -262144, 1073741824, 0, -262143, 1073741824, 0, -262142, 0, 0, -262141, 0, 0, -262140, 0, 0, -262139, 1073741827, 0, -262138, 0, 0, -262137, 0, 0, -262136, 0, 0, -262135, 0, 0, -262134, 0, 0, -262133, 0, 0, -262132, 0, 0, -262131, 0, 0, -262130, 1610612739, 0, -262129, 0, 0, -262128, 0, 0, -262127, 0, 0, -262126, 0, 0, -262125, 1073741824, 0, -196608, 1073741824, 0, -196607, 1073741824, 0, -196606, 0, 0, -196605, 0, 0, -196604, 0, 0, -196603, 1073741827, 0, -196602, 0, 0, -196601, 1073741843, 0, -196600, 1610612755, 0, -196599, 1073741824, 0, -196598, 1073741824, 0, -196597, 1073741843, 0, -196596, 1610612755, 0, -196595, 1073741824, 0, -196594, 1610612739, 0, -196593, 0, 0, -196592, 0, 0, -196591, 0, 0, -196590, 0, 0, -196589, 1073741824, 0, -131072, 1073741824, 0, -131071, 0, 0, -131070, 0, 0, -131069, 0, 0, -131068, 0, 0, -131067, 1073741827, 0, -131066, 1073741824, 0, -131065, 1073741843, 1, -131064, 1610612755, 1, -131063, 1073741824, 0, -131062, 1073741824, 0, -131061, 1073741843, 1, -131060, 1610612755, 1, -131059, 1073741824, 0, -131058, 1610612739, 0, -131057, 0, 0, -131056, 0, 0, -131055, 0, 0, -131054, 0, 0, -131053, 1073741824, 0, -65536, 0, 0, -65535, 14, 1, -65534, 14, 0, -65533, 0, 0, -65532, 0, 0, -65531, 3, 0, -65530, 1073741824, 0, -65529, 19, 0, -65528, 536870931, 0, -65527, 1073741824, 0, -65526, 1073741824, 0, -65525, 19, 0, -65524, 536870931, 0, -65523, 1073741824, 0, -65522, 536870915, 0, -65521, 0, 0, -65520, 0, 0, -65519, 536870926, 0, -65518, 536870926, 1, -65517, 1073741824, 0, 0, 0, 0, 1, 14, 2, 2, 14, 5, 3, 0, 0, 4, 0, 0, 5, 3, 0, 6, 1610612736, 0, 7, 1610612736, 0, 8, 1610612736, 0, 9, 1610612736, 0, 10, 1610612736, 0, 11, 1610612736, 0, 12, 1610612736, 0, 13, 1610612736, 0, 14, 536870915, 0, 15, 536870912, 0, 16, 0, 0, 17, 536870926, 5, 18, 1610612750, 2, 19, 536870912, 0, 65536, 0, 0, 65537, 14, 2, 65538, 14, 5, 65539, 0, 0, 65540, 0, 0, 65541, 3, 0, 65542, 0, 0, 65543, 1073741824, 0, 65544, 1073741824, 0, 65545, 0, 0, 65546, 0, 0, 65547, 0, 0, 65548, 0, 0, 65549, 0, 0, 65550, 536870915, 0, 65551, 536870912, 0, 65552, 536870912, 0, 65553, 536870926, 5, 65554, 1610612750, 2, 65555, 536870912, 0, 131072, 0, 0, 131073, 14, 3, 131074, 14, 4, 131075, 0, 0, 131076, 0, 0, 131077, 3, 0, 131078, 0, 0, 131079, 1073741824, 0, 131080, 1073741824, 0, 131081, 1073741824, 0, 131082, 0, 0, 131083, 0, 0, 131084, 0, 0, 131085, 0, 0, 131086, 536870915, 0, 131087, 536870912, 0, 131088, 536870912, 0, 131089, 536870926, 4, 131090, 536870926, 3, 131091, 536870912, 0, 196608, 0, 0, 196609, 0, 0, 196610, 0, 0, 196611, 0, 0, 196612, 0, 0, 196613, 3, 0, 196614, 1073741824, 0, 196615, 1073741824, 0, 196616, 1073741824, 0, 196617, 1073741824, 0, 196618, 0, 0, 196619, 0, 0, 196620, 0, 0, 196621, 0, 0, 196622, 536870915, 0, 196623, 536870912, 0, 196624, 536870912, 0, 196625, 536870912, 0, 196626, 536870912, 0, 196627, 536870912, 0, 262144, 0, 0, 262145, 0, 0, 262146, 0, 0, 262147, 0, 0, 262148, 0, 0, 262149, 3, 0, 262150, 0, 0, 262151, 0, 0, 262152, 0, 0, 262153, 0, 0, 262154, 0, 0, 262155, 0, 0, 262156, 0, 0, 262157, 0, 0, 262158, 536870915, 0, 262159, 536870912, 0, 262160, 536870912, 0, 262161, 536870912, 0, 262162, 536870912, 0, 262163, 536870912, 0, 327680, 0, 0, 327681, 0, 0, 327682, 0, 0, 327683, 0, 0, 327684, 0, 0, 327685, 3, 0, 327686, 0, 0, 327687, 0, 0, 327688, 0, 0, 327689, 0, 0, 327690, 0, 0, 327691, 0, 0, 327692, 0, 0, 327693, 0, 0, 327694, 536870915, 0, 327695, 536870912, 0, 327696, 536870912, 0, 327697, 536870912, 0, 327698, 536870912, 0, 327699, 536870912, 0, 393216, 17, 4, 393217, 17, 3, 393218, 0, 0, 393219, 0, 0, 393220, 1, 0, 393221, 2, 0, 393222, 2, 0, 393223, 2, 0, 393224, 2, 0, 393225, 2, 0, 393226, 2, 0, 393227, 2, 0, 393228, 2, 0, 393229, 2, 0, 393230, 2, 0, 393231, 536870913, 0, 393232, 536870912, 0, 393233, 536870912, 0, 393234, 536870929, 3, 393235, 536870929, 4, 458752, 17, 5, 458753, 17, 2, 458754, 0, 0, 458755, 1, 0, 458756, 2, 0, 458757, 2, 0, 458758, 2, 0, 458759, 2, 0, 458760, 2, 0, 458761, 2, 0, 458762, 2, 0, 458763, 2, 0, 458764, 2, 0, 458765, 2, 0, 458766, 2, 0, 458767, 2, 0, 458768, 536870913, 0, 458769, 536870912, 0, 458770, 536870929, 2, 458771, 536870929, 5, 524289, 17, 2, 524290, 1, 0, 524291, 2, 0, 524292, 2, 0, 524293, 2, 0, 524294, 2, 0, 524295, 2, 0, 524296, 2, 0, 524297, 2, 0, 524298, 2, 0, 524299, 2, 0, 524300, 2, 0, 524301, 2, 0, 524302, 2, 0, 524303, 2, 0, 524304, 2, 0, 524305, 536870913, 0, 524306, 536870929, 2, 589824, 18, 0, 589825, 17, 0, 589826, 2, 0, 589827, 2, 0, 589828, 2, 0, 589829, 2, 0, 589830, 2, 0, 589831, 2, 0, 589832, 2, 0, 589833, 2, 0, 589834, 2, 0, 589835, 2, 0, 589836, 2, 0, 589837, 2, 0, 589838, 2, 0, 589839, 2, 0, 589840, 2, 0, 589841, 2, 0, 589842, 536870929, 0, 589843, 536870930, 0, 655360, 17, 6, 655361, 2, 0, 655362, 2, 0, 655363, 2, 0, 655364, 2, 0, 655365, 2, 0, 655366, 2, 0, 655367, 2, 0, 655368, 2, 0, 655369, 2, 0, 655370, 2, 0, 655371, 2, 0, 655372, 2, 0, 655373, 2, 0, 655374, 2, 0, 655375, 2, 0, 655376, 2, 0, 655377, 2, 0, 655378, 2, 0, 655379, 536870929, 6, 720896, 2, 0, 720897, 2, 0, 720898, 2, 0, 720899, 2, 0, 720900, 2, 0, 720901, 2, 0, 720902, 2, 0, 720903, 2, 0, 720904, 2, 0, 720905, 2, 0, 720906, 2, 0, 720907, 2, 0, 720908, 2, 0, 720909, 2, 0, 720910, 2, 0, 720911, 2, 0, 720912, 2, 0, 720913, 2, 0, 720914, 2, 0, 720915, 2, 0 )

[node name="Foreground" type="TileMap" parent="."]
tile_set = ExtResource( 1 )
cell_size = Vector2( 8, 8 )
collision_layer = 0
collision_mask = 0
format = 1
tile_data = PoolIntArray( 65540, 15, 0, 65541, 15, 1, 65542, 15, 1, 65543, 15, 1, 65544, 15, 1, 65545, 15, 1, 65546, 15, 1, 65547, 15, 1, 65548, 15, 1, 65549, 15, 1, 65550, 15, 1, 65551, 536870927, 0, 327682, 15, 0, 327683, 15, 1, 327684, 15, 1, 327685, 15, 1, 327686, 15, 1, 327687, 15, 1, 327688, 15, 1, 327689, 15, 1, 327690, 15, 1, 327691, 15, 1, 327692, 15, 1, 327693, 15, 1, 327694, 15, 1, 327695, 15, 1, 327696, 15, 1, 327697, 536870927, 0 )

[node name="LevelSolid" type="StaticBody2D" parent="."]
collision_mask = 0

[node name="Floor" type="CollisionShape2D" parent="LevelSolid"]
position = Vector2( 80, 92 )
shape = SubResource( 1 )

[node name="Ceiling" type="CollisionShape2D" parent="LevelSolid"]
position = Vector2( 80, -42 )
shape = SubResource( 1 )

[node name="Wall1" type="CollisionShape2D" parent="LevelSolid"]
position = Vector2( 0, 23.967 )
shape = SubResource( 2 )

[node name="Wall2" type="CollisionShape2D" parent="LevelSolid"]
position = Vector2( 160, 23.967 )
shape = SubResource( 2 )

[node name="LevelOneWay" type="StaticBody2D" parent="."]
collision_layer = 2
collision_mask = 0

[node name="Perch1" type="CollisionShape2D" parent="LevelOneWay"]
position = Vector2( 80, 45 )
shape = SubResource( 3 )
one_way_collision = true

[node name="Perch2" type="CollisionShape2D" parent="LevelOneWay"]
position = Vector2( 80, 13 )
shape = SubResource( 4 )
one_way_collision = true

[node name="Nest" parent="." instance=ExtResource( 2 )]
position = Vector2( 84, 80 )

[node name="Spawners" type="Node" parent="."]

[node name="Door1" type="Node2D" parent="Spawners"]
position = Vector2( -16, 73 )

[node name="Door2" type="Node2D" parent="Spawners"]
position = Vector2( 176, 73 )

[node name="SpawnTimer" type="Timer" parent="."]
one_shot = true

[node name="GameUI" parent="." instance=ExtResource( 4 )]
